{
  "nothingness":[
    "WHAT IS IT?",
    "STATEMENT?",
    "PICTURE?",
    "CONCEPTIONALITY?",
    "SENTENCE",
    "IMAGE?",
    "WHAT IS IT?",
    "DRAWING?",
    "PAINTING?",
    "CRAFT?",
    "IMAGINATION?",
    "WHAT IS IT?",
    "INFINITY?",
    "SPACE?",
    "ABSTRACT?",
    "FLUFFY?",
    "CONCRETE?",
    "COMPLEX?",
    "WHAT IS IT?",
    "LINES?",
    "STROKES?",
    "COLORS?",
    "ART?",
    "WHAT IS IT?",
    "QUEER?",
    "BEAUTY?",
    "WHAT IS IT?",
    "STATEMENT?",
    "PICTURE?",
    "CONCEPTIONALITY?",
    "SENTENCE",
    "IMAGE?",
    "WHAT IS IT?",
    "DRAWING?",
    "PAINTING?",
    "CRAFT?",
    "IMAGINATION?",
    "WHAT IS IT?",
    "INFINITY?",
    "SPACE?",
    "ABSTRACT?",
    "FLUFFY?",
    "CONCRETE?",
    "COMPLEX?",
    "WHAT IS IT?",
    "LINES?",
    "STROKES?",
    "COLORS?",
    "ART?",
    "WHAT IS IT?",
    "QUEER?",
    "BEAUTY?",
    "WHAT IS IT?",
    "STATEMENT?",
    "PICTURE?",
    "CONCEPTIONALITY?",
    "SENTENCE",
    "IMAGE?",
    "WHAT IS IT?",
    "DRAWING?",
    "PAINTING?",
    "CRAFT?",
    "IMAGINATION?",
    "WHAT IS IT?",
    "INFINITY?",
    "SPACE?",
    "ABSTRACT?",
    "FLUFFY?",
    "CONCRETE?",
    "COMPLEX?",
    "WHAT IS IT?",
    "LINES?",
    "STROKES?",
    "COLORS?",
    "ART?",
    "WHAT IS IT?",
    "QUEER?",
    "BEAUTY?",
    "WHAT IS IT?",
    "STATEMENT?",
    "PICTURE?",
    "CONCEPTIONALITY?",
    "SENTENCE",
    "IMAGE?",
    "WHAT IS IT?",
    "DRAWING?",
    "PAINTING?",
    "CRAFT?",
    "IMAGINATION?",
    "WHAT IS IT?",
    "INFINITY?",
    "SPACE?",
    "ABSTRACT?",
    "FLUFFY?",
    "CONCRETE?",
    "COMPLEX?",
    "WHAT IS IT?",
    "LINES?",
    "STROKES?",
    "COLORS?",
    "ART?",
    "WHAT IS IT?",
    "QUEER?",
    "BEAUTY?"
  ]
}
